[
    {
        "teamName": "Project Football",
        "couch": {
            "name": "羅文傑"
        },
        "players": [
            {
                "no": "1",
                "name": "謝國偉",
                "avatar": "avatars/1.jpg"
            },
            {
                "no": "2",
                "name": "梁煒楠",
                "avatar": "avatars/2.jpg"
            },
            {
                "no": "3",
                "name": "周汶傑",
                "avatar": "avatars/3.jpg"
            },
            {
                "no": "4",
                "name": "方浩",
                "avatar": "avatars/4.jpg"
            },
            {
                "no": "5",
                "name": "曾添",
                "avatar": "avatars/.5jpg"
            },
            {
                "no": "6",
                "name": "鄭高豪",
                "avatar": "avatars/6.jpg"
            },
            {
                "no": "7",
                "name": "熊嘉豪",
                "avatar": "avatars/7.jpg"
            },
            {
                "no": "8",
                "name": "蔡文丹",
                "avatar": "avatars/8.jpg"
            },
            {
                "no": "9",
                "name": "余鉅恩",
                "avatar": "avatars/9.jpg"
            },
            {
                "no": "10",
                "name": "李旭輝",
                "avatar": "avatars/10.jpg"
            },
            {
                "no": "11",
                "name": "甘嘉豪",
                "avatar": "avatars/11.jpg"
            },
            {
                "no": "12",
                "name": "岑焯堯",
                "avatar": "avatars/12.jpg"
            },
            {
                "no": "14",
                "name": "陳梓健",
                "avatar": "avatars/14.jpg"
            },
            {
                "no": "15",
                "name": "莫家熙",
                "avatar": "avatars/15.jpg"
            },
            {
                "no": "16",
                "name": "黃特孝",
                "avatar": "avatars/16.jpg"
            },
            {
                "no": "18",
                "name": "劉嘉盛",
                "avatar": "avatars/18.jpg"
            },
            {
                "no": "20",
                "name": "羅文傑",
                "avatar": "avatars/20.jpg"
            }
        ]
    }
]